{
	"id": "f52d6843-0223-7323-0da8-87a2d3fc50c3",
	"name": "consorcio",
	"description": "",
	"order": [
		"86043ce1-3909-2d94-e3af-44ce162a5f34",
		"8e8b8ab9-9b82-f71e-7485-35c9ab73a06e",
		"70fde310-ffac-8097-6ad5-f6f29501e352",
		"dd508b52-53bd-5cbd-ac49-9fa3beb053a4"
	],
	"folders": [],
	"timestamp": 1577532479229,
	"owner": "5284074",
	"remoteLink": "",
	"public": false,
	"published": false,
	"requests": [
		{
			"id": "70fde310-ffac-8097-6ad5-f6f29501e352",
			"headers": "",
			"url": "http://127.0.0.1:3000/stores?id_region=7&name=ahumada",
			"pathVariables": {},
			"preRequestScript": null,
			"method": "GET",
			"collectionId": "f52d6843-0223-7323-0da8-87a2d3fc50c3",
			"data": null,
			"dataMode": "params",
			"name": "/stores?id_region={id}&name={name}",
			"description": "Consulta por región y nombre",
			"descriptionFormat": "html",
			"time": 1577753741039,
			"version": 2,
			"responses": [],
			"tests": null,
			"currentHelper": "normal",
			"helperAttributes": {}
		},
		{
			"id": "86043ce1-3909-2d94-e3af-44ce162a5f34",
			"headers": "",
			"url": "http://127.0.0.1:3000/stores?id_region=7",
			"preRequestScript": null,
			"pathVariables": {},
			"method": "GET",
			"data": null,
			"dataMode": "params",
			"version": 2,
			"tests": null,
			"currentHelper": "normal",
			"helperAttributes": {},
			"time": 1577753677330,
			"name": "/stores?id_region={id}",
			"description": "Consulta por región",
			"collectionId": "f52d6843-0223-7323-0da8-87a2d3fc50c3",
			"responses": []
		},
		{
			"id": "8e8b8ab9-9b82-f71e-7485-35c9ab73a06e",
			"headers": "",
			"url": "http://127.0.0.1:3000/stores?id_region=7&sector=cerrillos",
			"pathVariables": {},
			"preRequestScript": null,
			"method": "GET",
			"collectionId": "f52d6843-0223-7323-0da8-87a2d3fc50c3",
			"data": null,
			"dataMode": "params",
			"name": "/stores?id_region={id}&sector={sector}",
			"description": "Consulta por región y sector",
			"descriptionFormat": "html",
			"time": 1577753649351,
			"version": 2,
			"responses": [],
			"tests": null,
			"currentHelper": "normal",
			"helperAttributes": {}
		},
		{
			"id": "dd508b52-53bd-5cbd-ac49-9fa3beb053a4",
			"headers": "",
			"url": "http://127.0.0.1:3000/stores?id_region=7&sector=la reina&name=ahumada",
			"pathVariables": {},
			"preRequestScript": null,
			"method": "GET",
			"collectionId": "f52d6843-0223-7323-0da8-87a2d3fc50c3",
			"data": null,
			"dataMode": "params",
			"name": "/stores?id_region={id}&sector={sector}&name={name}",
			"description": "Consulta por región, sector y nombre",
			"descriptionFormat": "html",
			"time": 1577757409188,
			"version": 2,
			"responses": [],
			"tests": null,
			"currentHelper": "normal",
			"helperAttributes": {}
		}
	]
}